com\serenitybdd\exercise\ui\GoogleHomeElements.class
com\serenitybdd\exercise\ui\SearchBox.class
com\serenitybdd\exercise\tasks\OpenTheApplication.class
com\serenitybdd\exercise\tasks\FindTheElement.class
com\serenitybdd\exercise\ui\GoogleSearchPage.class
com\serenitybdd\exercise\tasks\Search.class
com\serenitybdd\exercise\features\search\package-info.class
com\serenitybdd\exercise\features\search\SearchPageStory.class
